
		       Tally Sheet for the votes cast. 
 
   The format is:
       "V: vote 		HMAC_SHA256_HEX"
 You may locate the HMAC_SHA256_HEX corresponding to a debian login ID,
 given the associated secret token returned with the ack,
 by running the sha256 hmac function. For example, for login ID srivasta, and
 the secret token 0123456789ABCDE, the following invocation works:
   % echo -n "srivasta" | openssl dgst -hmac 0123456789ABCDE -sha256
 The vote block represents the ranking given to each of the 
 candidates by the voter. 
 -=-=-=-=-=-=-=-=-=-=-=-=-=-=-=-=-=-=-=-=-=-=-=-=-=-=-=-=-=-=-=-=-=-=
 -=-=-=-=-=-=-=-=-=-=-=-=-=-=-=-=-=-=-=-=-=-=-=-=-=-=-=-=-=-=-=-=-=-=

     Option 1----->: CRA and PLD proposals include regulations detrimental to FOSS
   /  Option 2---->: CRA and PLD proposals should only apply to commercial ventures
   |/  Option 3--->: The EU should not overrule DFSG 6 and FOSS licenses
   ||/  Option 4-->: None of the above
   |||/
V: 11-- 		02e2b4916a14e303b3465be218a05dfc02fe98f73836b4f539d6fb001d43ad82
V: 2134 		04104c44933e1458ce6d8bd39d24e13571a0a1379d97936327257a749c270ffa
V: 3214 		043dea8cbb5fc353b68dc4cb46a1f981aab9de7c016d559bb17fa1357ab16d90
V: 231- 		05489dc682494b1480034e66c9b2d906ea81c36e1cee43607eb87040bed237d8
V: 12-- 		08a8403008fc0c24d6e99d8e62a14f6e847085a456b9d1be50a90d27a8641403
V: 2143 		0a0f76cda634210eb56a56c887090f8fe16f41565f1cc8f4d291efb1ff7c0789
V: 1324 		0c51a3ea1f606763c49048f85a76a6de83b69d0d7f905bdd6c811af0a57aa08f
V: ---1 		0ca6557c9dd4885e505e4c253462fe4e95b445f13d291a38ffb1e3f0eddff0e2
V: 122- 		0f88f5f446442d32d7ab9731f825620cc0b1c9783533877fe09399eae881cace
V: 1324 		12777850863ecc66451eb952a99e5546da9c17ea71ac9ac24bf8cfc7efb9fe29
V: 1243 		12c4ed425be9f687187a65a85d2fe61c672df8ad9a7a32557a316d20a59d5db9
V: 3214 		12fb333051923cd1ace74372e1f3595b7af818ed75ca3821af8bef2e6285903c
V: 321- 		14d0e0d116353ae64b8839e1e1eb03c5be1498356bf4f20cc18323286f316d2c
V: 2413 		1573001b3e261f50bd9c29493dee4b07cf78440e1a6b1aa7132bf7527ec08dac
V: 3241 		15d6ff93e94689ef6aaf234d358b0cdef0ddb3f9d3460c46a13ac7f7bdf4e454
V: 122- 		16473d40080daf96c32ca6a81875c4a1a1bfbd5a43487f82477994712322bb33
V: 1234 		17e6c1653bcb13de31fe380586a77245199f5aee5e48a9b16bcc505564db0ff4
V: 231- 		184464157bf85437a1af781863611d138d09c829b5ae39b01fedc37f247d359d
V: 111- 		1b77c4e988aa25bc175689c5d0d89eab94cf97321da37c079e9fed1838cf0614
V: 1214 		1d8e1d8f4a7e09e3c230de55077ee991af4b0cdd37d2d16e00e1b4572120f583
V: 3142 		1e544f8f0d45965f652329fa64498e4b6817e47c15a6943c566b6ba127d86d0d
V: 2143 		2265c809a6428f230138900f50d4cf861f5b9b4bca106864c0d5364cf2132798
V: 123- 		23330fe72028f6226030e70d63b86653b4718fb895778c245d017d698f370486
V: 212- 		23570e4810195a35fabbaed3c58af198394c4d8c72b73b17a140b8f608182038
V: 1-2- 		2395039ab33f4c5f4a2f6983f9aee831d2b7d35ba2fa178a4fb1e45c0d3c8bb9
V: 1324 		2412d40b362a0e409baaf81ffef788ca3be1db1907f34c980e6a7639643986b1
V: 2-1- 		246a59af5630594278597298a06397a53ba5316b7d2c4a6b6b3c714f0aaec821
V: ---1 		274dd70d0f2a2144ecd486a550b256b59fae5d82ac552afc4ebe1e8e1d22f3f0
V: -1-- 		2b9fdcd04450c514f0b7bc677ea7b0d5197459103db4d20750913c04b6be0666
V: 2134 		2bab2ded85300c9d933ee23bf66dcbeb14008f82bcb7364abb8a94d158abc409
V: 4123 		2c48618653a6c82fcddbf4f51c64cb3171d5a20cfa6581285f8d0a40d0f17211
V: 132- 		2c91dd4d25e79b94ecf4cdfd0f7966e97b2aff3b5310bc84fcb30d7596613f5c
V: ---1 		2d8eebda068b5d9603a67347e9e2099f818cc22a59a73b4529af95f87945fec5
V: 1112 		33bdbdd6f05f41c229be7011b41e1b64dd5f9306025eecb973b8a050638883b3
V: 1312 		349ab7fbb65eaa9d19e406861622dacaa04f3b706e2cf92efaeeb489afdba423
V: 1234 		34eab792653aa5a23ed115c85e31c17c9fa37e6f7e73696b0d0139128eb5ba08
V: 1111 		3726aec90a05ba276505cc6faaf4fa7581a5b7fa8741f29cd91e3de0ed8029eb
V: 1234 		37ad80333eb8301b22a6cfd2c7dafff0eda19b61fb6f63309f93ece960c6586d
V: 1423 		37ebb10fa2a8b6eb12372238c41ec967e8b5fcd5b90ab87d3d957d990350c958
V: 312- 		3b245f3b9c5b2ba7178a0757281f1c2defd46a0f3123d93317231d0fb03409fd
V: 312- 		3cae214fd373517b86ca1573b55d968ece1309ad118ea5d6129513f1b64254e0
V: 2134 		3d6d52a64319a7b931c3721c5ac24ad1b424aac4f9221a5be7f6e99dafc2e653
V: --1- 		3ec63cdf00caf0b83348304c31ecdf96f83cb1dda10c09b08bb6abd1fe704b52
V: 123- 		416d4d1d6c2b16842f090d27ffc5ce36688850656bd923686033181aaa153635
V: 3214 		4627cbeb40a1f07e3be596ce6f2b2fbe7bc27ce614c6e608fabb544a625921de
V: 3124 		466c5610b5250f1ffd3fc73dfac08b65deb7e494e5dee7f17df02f427f688feb
V: 1332 		471c40f2c9064e5405d79a53ad6c3e70c74bca8117436ae0589d143e5c64efb6
V: 1112 		47fef7e18aa3101a2abc84b96d3786499d51a9101d7f8de691ff3b773a35f4b1
V: 1234 		481e38d3f51f7cda69d7cb9a463c6031ed2f76243265b87083f95aec2e8dc82e
V: 111- 		5158176f54c979455c1f8c5c9a9474bfba358d4846e72d6c3ec30b8bb7f5a110
V: -12- 		51f907ecbefeccba91d39e41515b8a8c97027cb7900550029a7a7d668b16e8b9
V: 2-1- 		5465715da26f4ee4b67c255954217c394a3af9c2f87a57dde9bc77d2aab46bf0
V: 3214 		54c1c6d2cc38100dbba7bf9d622714224fe93ead259638e6307278647b097d49
V: 321- 		55d43a3cb5ef1492d86950aa153202bbba34b17b39860bc63d29810b919585f6
V: 1324 		59b786f7fa9afeb6ef668dee0c913ada6d00fa7ffeebbdeaeeff67f95cb458d8
V: 2314 		59ff3dc18d47bf0a992f34a342c28f56ffedf652473256ae82779149d63b1f82
V: 4132 		5c88af757400a3b3bfa2282213ed399f66dbde3dd7b8eadb6dc0306061646a46
V: 4444 		5c9b40435a74b157f19fe3a1548f4198c2cdb466ef9eb192768594ee0be40abe
V: 3241 		5cd47829846f74da18e370c867564c8a3463d3e50591ee6fd84e382097da9172
V: 4132 		5cef3801c986c000dc99f1228484992e95a63ac7d00dd1024fbcc0f16261d38e
V: 1223 		5d148451377c03256e4937b6bc9fe1321ed3d246f6c02571bc3ebf489c46882d
V: -1-2 		5d23e099971e2fdd2ef63ac3350ec9dfb561810f8ba4b0478ac96c9a27259650
V: 1342 		5e967e434c545193b09e0ab743dd2032b31345589e77993a378cf01a52906876
V: ---1 		5ebee8f175b71cc79fef6c210e727f30588e44ff6b1ab0183611f3faac81816d
V: 312- 		5ec8826737f4f3ea6794f394058802088922c297ffce8aed2bbfc3e6734648c9
V: 132- 		613419df6f9e7a25290297814970fec9f33761e9604e0ccb58642216251ffdc2
V: 2314 		62416e1b08afd445206680d0841c161d668330e0be5888f112a943143458cf76
V: ---1 		64afb297241e5dbe634c21176c2a19069b99a8bb0b10a15af27e9aa4ca3afc78
V: 21-2 		64bd0f3f90508da8da5a1f1bbdfbd0b5cb3993571fb94e38488b8ab7d227ff2b
V: 2134 		675f4bc99eaceb67cea33bb3980b1d9004a3e4b648187db2a49fbe609130805e
V: 3124 		67b4cc0a755a04be0d4ba36b2118d8c01912a41d172dc51ff346bedc7e035abd
V: 1324 		6a76446084a85f28c322311eee0b48b45867dceb8758db72b564b03018258f07
V: ---1 		6c412102ecb949cfe0701c2c3f86fe3493c875be602a756c90cb7c2271ce78bb
V: 2414 		6d78aff94a0c3ffd03fbe725be86e53f99d0ce7581b4c7b4a268ef7d21dc8d8d
V: 2134 		6d8b70b00c7af5246f0513ac53b4f6338297ed47532c040bf4021b6fbc580f9c
V: 1133 		71fe7f89af962185ed981739a63ff014446d57d350edc3daa4940fb6fd87ff55
V: 3142 		7b1477f0cd64b022fb678b60490e92358e86e694e3a9c22c1ea0c84ef4999447
V: 231- 		80a7e1adf47a6f1e5bda501d980b5cf7790fb3d6b85622ca6d85387ff22fb222
V: 1324 		80c9aefaa05b0602d6b3450165497bf567006b13fb5b3671ee369659960467c9
V: 1234 		845eb6f3a1ab3ea98981be175b284f58cc036f41b78dbc184753cb29b5d0e94b
V: 1324 		865d4662e21ce84ee81cb4f1a89d58927bf0e90f20f09c78bdc089b671ef7959
V: 132- 		8838856fbf0e6707e8f71fc5948e48900bf8bc5239b04b518b7834a24ed7a410
V: 321- 		89fad7b8abb60009f4a44a200dbc858af53785be44e1ac776c3d93c6c3a76232
V: 31-2 		910ab20705fae47c53c00d717b3a6733a41aac42fb2e46a5b1e6fa089f398227
V: 2413 		969ec8afbe53a2859ed04d25e89e70f521695ae43d6286240d6ad3b16b9d9972
V: 3124 		969f9f3d88b380364f824fd62dedcd6b7daf8e5797919820dfb7fc1b3f80a467
V: 132- 		97052120036246ee9489cfbbcbcce12f6199119a7795d135581a5a1ea2fc143e
V: 2123 		978328ed8ec93fb1729cdc5dc539eb252bd6391bffd7b8465295d1c790600122
V: 1--- 		97eea14e3396e9ee6f412b8a4fb484a7f0532ea3e753e7446dff1513960572b8
V: 3214 		996ab156cd26ed22df50397f1b58d48585a79c540c0c54b77d61d24942d7f126
V: 321- 		9b0b81fb89512d754aec683e7db2329120109035bd3e0ea7c5c1625c66877c94
V: 1-2- 		9b0c698393fa39174a8fa725aca160df7112fd1896892caa088400c1bef7ba86
V: 2413 		9c9934ef93d901a0d8fb5bd78cc6b212b72561985bd1b5a4b6015afecdec6810
V: 1324 		9cabfd8fdda8939bcdf496c134bb55ba546a50b7dc1e19892021b9542581f08b
V: 4213 		9d30b810d734de20b339db962d3b0e16ddbe4f74986f4c0c39810544b963dd5d
V: 1324 		9e41868dcb0ab01e035d6ce459ca55e3330e7311006b4463e48e22513475a08a
V: 3124 		9e7faaf615015c84cabf724543cf2bf52a1a640ad4e9378b9602f93d245edd06
V: 1243 		9fd7b16fc523450204375dac0d29f7e972204ffdf5f1a6e23085ba71739cad83
V: 1213 		a47701c7f40a4f0d64d88f01d1748872ed5363748a7391be4ea822ac67702d10
V: 1234 		a4f2c1420ba6064ab2e9722f9ca11a97e68c61787d46c5d3fce036825379d4f3
V: 132- 		a500f2cdb69240dc5f0d99219bf1e531e21a839e30841db77cd1aba6f05b1f1d
V: 2143 		a56a0a733ee82e686cc17009d494b9d7428220a7901e82d7e0b7352d8f5a0406
V: 1234 		a5a0f6cdaedb74774d922ec3419603c4531a1c8cb7095b553c5305a540dee907
V: 1234 		a5d1ab4cbb6d3bb168b4bcdfe9f23057bda8b7c1e58f5d8fcd76a3c2b1722e5f
V: -1-2 		a5f2d6a4c09b70450545335661ab48dcd2e2f1f4bb531135220e77d7521856b8
V: 2413 		a98448c9ba2ef7cfdfb817927755cafa190660e045913c5110f7fdd31df1a9b8
V: 3214 		a990d565c60a2419dcb105c08776d5caa0b13afd80e52bc269d890140534c0a7
V: 4321 		aa06468c920b2a9efe6e9f26d6a9ca180402ef1ef58ba51778537cf320f86704
V: 3124 		ac910bfdc19844637e603b894f1fd0a5ea20a90586c94fbbc21d0927a5e5bcf6
V: 1243 		ade805cd307ef9c723b94ba8bbb338fbeec39abc8b74dfab0d30913acaec5a04
V: 2134 		aecd6b064b1866aabccd710b75c2e3c0c207b8305544a6aa6717ed77907bea1a
V: 1--- 		b3e155a4605868506f78cdef5d34ac49da038c381b33127e46914728850bb9da
V: 213- 		b85e646645ef09c41487aba6368e637028ccf74d4f56f223c55112a29fdcf7f6
V: 1-2- 		b87f8bf337270fa87a8340e0d6923e7eb5c5944a83a6edb44549b86bafd56698
V: -1-2 		b90f4118ceaf5090e7d1f36a6c330bf4029f28f7e4c5d15007dbea21e5e48501
V: 3124 		b96c339a3cb1cfdc1e950342a83d8420291caceddfcac308c344d961663d94e6
V: 2314 		ba1a9d91111b8d33f5d9528798c40cdfe3eed4f04fc81a4f9d5c26943e56c8b7
V: 3134 		bae2d1bbca49ae3b3df49102e2fb4ddea46edb3cc0d8940a198326cd545a95d8
V: 2314 		bb5d347eaee491cf2718bd044875b8b3136e7a0cbf25240622ac3456aa75c119
V: 12-3 		be6ce60d13d3753edbcb5d7e0681094216e1b73790bf00e087b0542234efbedb
V: 1234 		be94e7dcf54c8f265239b611d5b403e5eeb8c074dd033606d0bfb3ec7b7dc80d
V: 2413 		bef874e3d0bce2f0778dcc1e877d7733cd2204304e0595fde37551224fa0d6b5
V: 2124 		c59017d594ae11a890049c358ecbdec9625c761a5ab00935be040fe21537b7cb
V: 3312 		c86a86230c08f18014ee32781981cf35df3946597f2dbdcfea6c684659852a0e
V: --12 		c86f9f6c8ba01899ac0e11a65a8028e27ebd86d1136211520b814957f3d95e2b
V: 1324 		c9e2fe3e9b5eb73a87085409c219530a3c9a43600b2163790368a56713ed844f
V: 132- 		cb33141942acacc97ef2440b717431d91e45a586e548081e497ec531976cbe7b
V: 123- 		cbd6221aaed791affc44b508817fb3a11f4600f4c8c9908eabd349a305b4e03f
V: 1--- 		cd868ddf284818dd005fcb9c2009d6e8861dd5577cab03e29e930b86e46a7567
V: 4132 		ce1cc141317ac554748d670011d82d120602e7829861ce4dc05ee3f25a33df92
V: 112- 		cf6fd7bd015e58e92a3a6f847674d5eb4583bfa6c80c97653f01cbe44516c5cb
V: ---1 		d0edb804af70918c4a58963ea466c0756c95c4d56bbc7d8343f273d93f95f32f
V: 3214 		d13e69aee5a402fef60449c34f40a1d51a0ad3797919fbc4e063a0cd985b9d24
V: 132- 		d1861025c537023a985f4ef184d4518ec1c48eeca4a7a1855c998aee8d3610d7
V: 3412 		d3018e24ab6f7420bafbe9a981d1f0dc875c4d29df8191d7b0713b53d4273ebb
V: 123- 		d521a13e405b7e33efb681cd64457ea21bda0fd0c7bc6b5725184d85132cb0e8
V: 1112 		d5373a25ea07008e31f04b2b7261c47e861ac635d00d0694f580a635a98b9a15
V: 4312 		d9c7e7cac7efb41b6c93dbaabf5a01ce5ecce8d7a28804518aa53d17b760e91a
V: 4123 		da5f021594fe867b5e32a321b0f1419d2c99384ecc23f8268da936da63e28a0b
V: 3124 		db75a3b007aa064c0e6128a896c53f230452bf564cf6f3b7ea53f9dce587236c
V: 1324 		ddee2e7a11da668b655257a44e8ae11bea3ea0a2812c3b47ebea3c5c8fb4c151
V: 3124 		df7881875095d267eb63a08beacbde1a67c76771f7dd7594a062ba2eb79b8305
V: 2134 		e041791880d3f8507e53ff817aeebc13d6e1d104d5446282b80605c55b03a1b9
V: 312- 		e2d2a6e4f3de46d5efb77df051a20752f8d1a026bc1f787c314dd11340e7dcb5
V: 3214 		e3a26c8c0d76d4453e9b6b867bc842363ad4026aea2b0c1a17cb4fd6c5ddd4e4
V: ---1 		e3e8001b917b625ffcc2a47e4a05eedf88f4bf37ea0e897c1067225eb6058cec
V: 2314 		e44e22415c3d38cd8aea788844c01546d3ce0e6634fa501eb5977b36b460a501
V: 4231 		e61ceabbf89ad325fcfbc5b61ab1a403def08b603aa1a1025a04325e30715e51
V: 1332 		e73831f2a2b54f776f68d87cf6514a93c3f388b34fb79f0abe2dcdcc57bb56f0
V: 212- 		e93e25b7a003e688555cce031417b3ff70bb94b5a240c0a7cc382aa80efb0d9f
V: 2413 		e9b50da4d05d18af09229aa1c637c5b0f373522d090fa69e05f80cf5051b1955
V: ---1 		ea47a03786bdd3db32a61b2d92b5960efa842b4145a53f0d75eb9f2189af796c
V: 2124 		ec104928486728bcc946b99014e1711f3392938f03881e330d8bcb64bd102049
V: 2413 		f1ea249c5428af627bc19745fc5b96f58065993473c12ba5ea3e2957e14976a9
V: 2331 		f20adf2294d4bf56517da0e5410cafb9a65f753e3acf4d6b2b5eb2fee3cf5402
V: -1-2 		f543e8e0cddf63554970b138733943c8cdf08c30d2d9424e6c33dd9a905fb0b0
V: -1-2 		fa1cbf549d8c18dd178639baf19bd837767ec517ea39f12e2cae3da63ec68049
V: -1-- 		fae381e30e63690b0fc5d735b6123771124bbe6e7b4de92ea6f4e69f053a27be
V: -1-2 		fb76c0ba0b820cd3fa5c290df4c92832d3a594c7b46de6b9d557ebe122bf48a5
V: 2134 		fc0a0265cf0f2aafd82cc56483b56e658f1b6f32909f78e509fcac13d2d7667a
V: 4421 		fe338c7af14cf917bd54f544a2b44d9920165e4340fe4b652aeaf578b137f67c
V: 3214 		fe35349586116e64dae821443ca2bb69772a3f166728c1489c18f26271c720ae
V: ---1 		ffad0a32f506d5236a700cbd04ae714d81959878033c87a2b946d2b805e67ba3
